\relax 
\citation{nesterov1983method}
\bibstyle{../Setting/sty/jsce}
\bibdata{../5_bibliography/Bibliography/TexBib}
\bibcite{nesterov1983method}{1}
\@writefile{toc}{\contentsline {section}{\numberline {1}Nesterovの加速勾配法}{1}\protected@file@percent }
\newlabel{eq:nesterov_rate}{{1}{1}}
\@writefile{loa}{\contentsline {algorithm}{\numberline {1}{\ignorespaces Nesterov's Accelerated Gradient Method}}{1}\protected@file@percent }
\newlabel{algo:Nesterov}{{1}{1}}
