\relax 
\@writefile{toc}{\contentsline {section}{\numberline {1}単体法($\bm  {x} = \bm  {0}$が実行可能領域に含まれない場合)}{1}\protected@file@percent }
\newlabel{eq:original}{{5}{1}}
\newlabel{eq:artificial}{{6}{1}}
\bibstyle{../Setting/sty/jsce}
\bibdata{../5_bibliography/Bibliography/TexBib}
\newlabel{eq:artificial}{{8}{2}}
\@writefile{loa}{\contentsline {algorithm}{\numberline {1}{\ignorespaces 単体法(シンプレックス法)初期解が自明でない場合}}{3}\protected@file@percent }
\newlabel{algo:simplex}{{1}{3}}
