\relax 
\@writefile{toc}{\contentsline {section}{\numberline {1}近接勾配法(Proximal Gradient Method)}{1}\protected@file@percent }
\newlabel{eq:Proximal_1}{{1}{1}}
\newlabel{eq:gamma}{{10}{1}}
\bibstyle{../Setting/sty/jsce}
\bibdata{../5_bibliography/Bibliography/TexBib}
\newlabel{eq:jogen}{{17}{2}}
\newlabel{eq:saki}{{21}{2}}
\@writefile{loa}{\contentsline {algorithm}{\numberline {1}{\ignorespaces Proximal Gradient Method ($g(\bm  {x})=0$の場合)}}{3}\protected@file@percent }
\newlabel{algo:Momentum}{{1}{3}}
