\relax 
\bibstyle{../Setting/sty/jsce}
\bibdata{../5_bibliography/Bibliography/TexBib}
\@writefile{toc}{\contentsline {section}{\numberline {1}Momentum法}{1}\protected@file@percent }
\@writefile{loa}{\contentsline {algorithm}{\numberline {1}{\ignorespaces Momentum Method}}{1}\protected@file@percent }
\newlabel{algo:Momentum}{{1}{1}}
