\relax 
\@writefile{toc}{\contentsline {section}{\numberline {1}単体法(シンプレックス法)}{1}\protected@file@percent }
\newlabel{sec:simplex_nomal}{{1}{1}}
\newlabel{eq:dictionary}{{6}{2}}
\@writefile{loa}{\contentsline {algorithm}{\numberline {1}{\ignorespaces 単体法(シンプレックス法)}}{3}\protected@file@percent }
\newlabel{algo:simplex_nomal}{{1}{3}}
\@writefile{toc}{\contentsline {section}{\numberline {2}単体法($\bm  {x} = \bm  {0}$が実行可能領域に含まれない場合)}{4}\protected@file@percent }
\newlabel{eq:original}{{12}{4}}
\newlabel{eq:artificial}{{13}{4}}
\newlabel{eq:artificial}{{15}{5}}
\@writefile{loa}{\contentsline {algorithm}{\numberline {2}{\ignorespaces 単体法(シンプレックス法)初期解が自明でない場合}}{6}\protected@file@percent }
\newlabel{algo:simplex}{{2}{6}}
\bibstyle{../Setting/sty/jsce}
\bibdata{../5_bibliography/Bibliography/TexBib}
