\relax 
\citation{nesterov1983method}
\citation{beck2009fast}
\citation{o2015adaptive}
\bibstyle{../Setting/sty/jsce}
\bibdata{../5_bibliography/Bibliography/TexBib}
\bibcite{nesterov1983method}{1}
\@writefile{toc}{\contentsline {section}{\numberline {1}FISTA with リスタート}{1}\protected@file@percent }
\@writefile{loa}{\contentsline {algorithm}{\numberline {1}{\ignorespaces FISTA with リスタート($g(\bm  {x})=0$の場合)}}{1}\protected@file@percent }
\newlabel{algo:FISTA with restart}{{1}{1}}
\bibcite{beck2009fast}{2}
\bibcite{o2015adaptive}{3}
