# Fdb version 3
["bibtex section5"] 1614260852 "section5.aux" "section5.bbl" "section5" 1614260859
  "../5_bibliography/Bibliography/TexBib.bib" 1614257602 1258 47ca2bc4c6e63131f0d6cac7bccee50d ""
  "../Setting/sty/jsce.bst" 1610700262 21348 4ff73b61369ebe2e66d9dc5f66875af5 ""
  "section5.aux" 1614260855 562 29a7054efeffae1aab9ebf4223f7d86e "latex"
  (generated)
  "section5.blg"
  "section5.bbl"
["dvipdf"] 1614260856 "section5.dvi" "section5.pdf" "section5" 1614260859
  "section5.dvi" 1614260855 7092 b0480556054afebd159e90881eed7dfe "latex"
  (generated)
  "section5.pdf"
["latex"] 1614260853 "section5.tex" "section5.dvi" "section5" 1614260859
  "../Setting/1_preamble/preamble.tex" 1606811372 1371 d1b36e550c92de203b5af6776b8d9748 ""
  "../Setting/2_command/command.tex" 1611033541 549 da83c6adf77fb68268a838fd2ba2ee87 ""
  "c:/texlive/2019/texmf-dist/fonts/map/fontname/texfonts.map" 1586432664 3524 cb3e574dea2d1052e39280babc910dc8 ""
  "c:/texlive/2019/texmf-dist/fonts/tfm/public/amsfonts/cmextra/cmbsy5.tfm" 1586429689 1120 1e8878807317373affa7f7bba4cf2f6a ""
  "c:/texlive/2019/texmf-dist/fonts/tfm/public/amsfonts/cmextra/cmbsy7.tfm" 1586429689 1120 7f9f170e8aa57527ad6c49feafd45d54 ""
  "c:/texlive/2019/texmf-dist/fonts/tfm/public/amsfonts/cmextra/cmex7.tfm" 1586429689 1004 54797486969f23fa377b128694d548df ""
  "c:/texlive/2019/texmf-dist/fonts/tfm/public/amsfonts/cmextra/cmmib5.tfm" 1586429689 1496 c79f6914c6d39ffb3759967363d1be79 ""
  "c:/texlive/2019/texmf-dist/fonts/tfm/public/amsfonts/cmextra/cmmib7.tfm" 1586429689 1508 6e807ff901c35a5f1fde0ca275533df8 ""
  "c:/texlive/2019/texmf-dist/fonts/tfm/public/amsfonts/symbols/msam10.tfm" 1586429689 916 f87d7c45f9c908e672703b83b72241a3 ""
  "c:/texlive/2019/texmf-dist/fonts/tfm/public/amsfonts/symbols/msam5.tfm" 1586429689 924 9904cf1d39e9767e7a3622f2a125a565 ""
  "c:/texlive/2019/texmf-dist/fonts/tfm/public/amsfonts/symbols/msam7.tfm" 1586429689 928 2dc8d444221b7a635bb58038579b861a ""
  "c:/texlive/2019/texmf-dist/fonts/tfm/public/amsfonts/symbols/msbm10.tfm" 1586429689 908 2921f8a10601f252058503cc6570e581 ""
  "c:/texlive/2019/texmf-dist/fonts/tfm/public/amsfonts/symbols/msbm5.tfm" 1586429689 940 75ac932a52f80982a9f8ea75d03a34cf ""
  "c:/texlive/2019/texmf-dist/fonts/tfm/public/amsfonts/symbols/msbm7.tfm" 1586429689 940 228d6584342e91276bf566bcf9716b83 ""
  "c:/texlive/2019/texmf-dist/fonts/tfm/public/ascmac/ascgrp.tfm" 1586429907 448 9a1f3a95c3a7e2681aa6eefcf410b7ac ""
  "c:/texlive/2019/texmf-dist/fonts/tfm/public/cm/cmbsy10.tfm" 1586430966 1116 4e6ba9d7914baa6482fd69f67d126380 ""
  "c:/texlive/2019/texmf-dist/fonts/tfm/public/cm/cmbx10.tfm" 1586430966 1328 c834bbb027764024c09d3d2bf908b5f0 ""
  "c:/texlive/2019/texmf-dist/fonts/tfm/public/cm/cmbx12.tfm" 1586430966 1324 c910af8c371558dc20f2d7822f66fe64 ""
  "c:/texlive/2019/texmf-dist/fonts/tfm/public/cm/cmbx5.tfm" 1586430966 1332 f817c21a1ba54560425663374f1b651a ""
  "c:/texlive/2019/texmf-dist/fonts/tfm/public/cm/cmbx7.tfm" 1586430966 1336 3125ccb448c1a09074e3aa4a9832f130 ""
  "c:/texlive/2019/texmf-dist/fonts/tfm/public/cm/cmmib10.tfm" 1586430966 1524 554068197b70979a55370e6c6495f441 ""
  "c:/texlive/2019/texmf-dist/fonts/tfm/public/cm/cmr12.tfm" 1586430966 1288 655e228510b4c2a1abe905c368440826 ""
  "c:/texlive/2019/texmf-dist/fonts/tfm/public/cm/cmr8.tfm" 1586430967 1292 21c1c5bfeaebccffdb478fd231a0997d ""
  "c:/texlive/2019/texmf-dist/fonts/tfm/public/cm/cmti10.tfm" 1586430967 1480 aa8e34af0eb6a2941b776984cf1dfdc4 ""
  "c:/texlive/2019/texmf-dist/fonts/tfm/uptex-fonts/jis/upjisg-h.tfm" 1586438023 812 52bd92aa20c58a398601cda6dd62c8d1 ""
  "c:/texlive/2019/texmf-dist/fonts/tfm/uptex-fonts/jis/upjisg-v.tfm" 1586438023 536 5f2475e9deb198c23894800d3c5eed00 ""
  "c:/texlive/2019/texmf-dist/fonts/tfm/uptex-fonts/jis/upjisr-h.tfm" 1586438023 812 52bd92aa20c58a398601cda6dd62c8d1 ""
  "c:/texlive/2019/texmf-dist/fonts/tfm/uptex-fonts/jis/upjisr-v.tfm" 1586438023 536 5f2475e9deb198c23894800d3c5eed00 ""
  "c:/texlive/2019/texmf-dist/tex/generic/iftex/iftex.sty" 1586433379 6902 30fdaf7dc5636b8e3afa306210c45cae ""
  "c:/texlive/2019/texmf-dist/tex/generic/iftex/ifvtex.sty" 1586433379 1057 525c2192b5febbd8c1f662c9468335bb ""
  "c:/texlive/2019/texmf-dist/tex/latex/algorithms/algorithm.sty" 1586429639 3249 15763257e50278eef5db1952ccde229c ""
  "c:/texlive/2019/texmf-dist/tex/latex/algorithms/algorithmic.sty" 1586429639 9318 793e9d5a71e74e730d97f6bf5d7e2bca ""
  "c:/texlive/2019/texmf-dist/tex/latex/amsfonts/amsfonts.sty" 1586429690 5949 3f3fd50a8cc94c3d4cbf4fc66cd3df1c ""
  "c:/texlive/2019/texmf-dist/tex/latex/amsfonts/amssymb.sty" 1586429690 13829 94730e64147574077f8ecfea9bb69af4 ""
  "c:/texlive/2019/texmf-dist/tex/latex/amsfonts/umsa.fd" 1586429690 961 6518c6525a34feb5e8250ffa91731cff ""
  "c:/texlive/2019/texmf-dist/tex/latex/amsfonts/umsb.fd" 1586429690 961 d02606146ba5601b5645f987c92e6193 ""
  "c:/texlive/2019/texmf-dist/tex/latex/amsmath/amsbsy.sty" 1586429697 2211 ca7ce284ab93c8eecdc6029dc5ccbd73 ""
  "c:/texlive/2019/texmf-dist/tex/latex/amsmath/amsgen.sty" 1586429697 4161 7f6eb9092061a11f87d08ed13515b48d ""
  "c:/texlive/2019/texmf-dist/tex/latex/amsmath/amsmath.sty" 1610619899 85654 765ae2618974b517c9e9b96f4a3d548f ""
  "c:/texlive/2019/texmf-dist/tex/latex/amsmath/amsopn.sty" 1586429697 4116 32e6abd27229755a83a8b7f18e583890 ""
  "c:/texlive/2019/texmf-dist/tex/latex/amsmath/amstext.sty" 1586429697 2432 8ff93b1137020e8f21930562a874ae66 ""
  "c:/texlive/2019/texmf-dist/tex/latex/ascmac/ascmac.sty" 1586429907 590 834565f4a016952bf667fd346b7aee71 ""
  "c:/texlive/2019/texmf-dist/tex/latex/ascmac/tascmac.sty" 1586429907 11463 e16f2fec3bf4db0d4002a155e4cf4467 ""
  "c:/texlive/2019/texmf-dist/tex/latex/base/ifthen.sty" 1586433844 5159 892429808d9e0e2b3548aaefd9a06ed0 ""
  "c:/texlive/2019/texmf-dist/tex/latex/float/float.sty" 1586432603 6749 16d2656a1984957e674b149555f1ea1d ""
  "c:/texlive/2019/texmf-dist/tex/latex/framed/framed.sty" 1586432739 22449 7ec15c16d0d66790f28e90343c5434a3 ""
  "c:/texlive/2019/texmf-dist/tex/latex/geometry/geometry.sty" 1586432841 41601 9cf6c5257b1bc7af01a58859749dd37a ""
  "c:/texlive/2019/texmf-dist/tex/latex/graphics-cfg/color.cfg" 1586433013 1213 620bba36b25224fa9b7e1ccb4ecb76fd ""
  "c:/texlive/2019/texmf-dist/tex/latex/graphics-cfg/graphics.cfg" 1586433013 1224 978390e9c2234eab29404bc21b268d1e ""
  "c:/texlive/2019/texmf-dist/tex/latex/graphics-def/dvipdfmx.def" 1586433014 10299 c742d2190e924996d2f4e34b541cd5e3 ""
  "c:/texlive/2019/texmf-dist/tex/latex/graphics/color.sty" 1586433009 7107 12f1c5ba3c6e4a1dde3cb5a3ae4b2cd1 ""
  "c:/texlive/2019/texmf-dist/tex/latex/graphics/dvipsnam.def" 1586433009 4944 1ddc361527c0bcf3d7b9f9b0c3c28113 ""
  "c:/texlive/2019/texmf-dist/tex/latex/graphics/graphics.sty" 1586433009 16932 04729abe63b66ec59ea56edcd722b058 ""
  "c:/texlive/2019/texmf-dist/tex/latex/graphics/graphicx.sty" 1586433009 9067 1b996612394a52e1efe89c8bfe8a5892 ""
  "c:/texlive/2019/texmf-dist/tex/latex/graphics/keyval.sty" 1586433009 2590 e3b24ff953e5b58d924f163d25380312 ""
  "c:/texlive/2019/texmf-dist/tex/latex/graphics/trig.sty" 1586433009 3976 d7fa7d81d2870d509d25b17d0245e735 ""
  "c:/texlive/2019/texmf-dist/tex/latex/l3backend/l3backend-dvipdfmx.def" 1586433776 22143 fa26d19ec6c8c4be2479fbbc278e298a ""
  "c:/texlive/2019/texmf-dist/tex/latex/tools/bm.sty" 1586437689 12671 ace2aac118748ea10d1717448ecafbed ""
  "c:/texlive/2019/texmf-dist/tex/uplatex/base/ujarticle.cls" 1586438008 25754 d6b51a43236c02c2ad673103d1ba6a9e ""
  "c:/texlive/2019/texmf-dist/tex/uplatex/base/ujsize10.clo" 1586438008 8651 7c927117a006d6d20783eba0d05c16bd ""
  "c:/texlive/2019/texmf-dist/web2c/texmf.cnf" 1586433725 39451 6c50cbbc48279cc2d67f72e32ca48ad5 ""
  "c:/texlive/2019/texmf-var/web2c/euptex/uplatex.fmt" 1586438732 10608664 da531925388b1d42eb3817e603763411 ""
  "c:/texlive/2019/texmf.cnf" 1586438448 673 4ae7b2f49cee444c5343a45b5d0f169c ""
  "section5.aux" 1614260855 562 29a7054efeffae1aab9ebf4223f7d86e "latex"
  "section5.bbl" 1614260853 705 30d1f4ea8a7a6a80866e01779fd18578 "bibtex section5"
  "section5.tex" 1614260848 3649 d34d3131c7b2b1e4cb37502ebe346d82 ""
  (generated)
  "section5.aux"
  "section5.dvi"
  "section5.log"
