\relax 
\bibstyle{../Setting/sty/jsce}
\bibdata{../5_bibliography/Bibliography/TexBib}
\@writefile{toc}{\contentsline {section}{\numberline {1}単体法(シンプレックス法)}{1}\protected@file@percent }
\newlabel{sec:simplex_nomal}{{1}{1}}
\newlabel{eq:dictionary}{{6}{1}}
\@writefile{loa}{\contentsline {algorithm}{\numberline {1}{\ignorespaces 単体法(シンプレックス法)}}{2}\protected@file@percent }
\newlabel{algo:simplex_nomal}{{1}{2}}
