\relax 
\citation{nesterov1983method}
\@writefile{toc}{\contentsline {section}{\numberline {1}Nesterovの加速勾配法}{1}\protected@file@percent }
\newlabel{eq:nesterov_rate}{{1}{1}}
\@writefile{loa}{\contentsline {algorithm}{\numberline {1}{\ignorespaces Nesterov's Accelerated Gradient Method}}{1}\protected@file@percent }
\newlabel{algo:Nesterov}{{1}{1}}
\@writefile{toc}{\contentsline {section}{\numberline {2}Momentum法}{2}\protected@file@percent }
\@writefile{loa}{\contentsline {algorithm}{\numberline {2}{\ignorespaces Momentum Method}}{2}\protected@file@percent }
\newlabel{algo:Momentum}{{2}{2}}
\@writefile{toc}{\contentsline {section}{\numberline {3}近接勾配法(Proximal Gradient Method)}{3}\protected@file@percent }
\newlabel{eq:Proximal_1}{{2}{3}}
\newlabel{eq:gamma}{{11}{3}}
\newlabel{eq:jogen}{{18}{4}}
\newlabel{eq:saki}{{22}{4}}
\@writefile{loa}{\contentsline {algorithm}{\numberline {3}{\ignorespaces Proximal Gradient Method ($g(\bm  {x})=0$の場合)}}{5}\protected@file@percent }
\newlabel{algo:Momentum}{{3}{5}}
\citation{nesterov1983method}
\citation{beck2009fast}
\@writefile{toc}{\contentsline {section}{\numberline {4}FISTA}{6}\protected@file@percent }
\@writefile{loa}{\contentsline {algorithm}{\numberline {4}{\ignorespaces FISTA($g(\bm  {x})=0$の場合}}{6}\protected@file@percent }
\newlabel{algo:FISTA}{{4}{6}}
\citation{nesterov1983method}
\citation{beck2009fast}
\citation{o2015adaptive}
\bibstyle{../Setting/sty/jsce}
\bibdata{../5_bibliography/Bibliography/TexBib}
\bibcite{nesterov1983method}{1}
\@writefile{toc}{\contentsline {section}{\numberline {5}FISTA with リスタート}{7}\protected@file@percent }
\@writefile{loa}{\contentsline {algorithm}{\numberline {5}{\ignorespaces FISTA with リスタート($g(\bm  {x})=0$の場合)}}{7}\protected@file@percent }
\newlabel{algo:FISTA with restart}{{5}{7}}
\bibcite{beck2009fast}{2}
\bibcite{o2015adaptive}{3}
