PWD C:/Users/takeda tsubasa/Documents/algorithm/primary_method_algorithm/algorithm_Summary/main
INPUT c:/texlive/2019/texmf.cnf
INPUT c:/texlive/2019/texmf-dist/web2c/texmf.cnf
INPUT c:/texlive/2019/texmf-var/web2c/euptex/uplatex.fmt
INPUT main.tex
OUTPUT main.log
INPUT ../Setting/1_preamble/preamble.tex
INPUT ../Setting/1_preamble/preamble.tex
INPUT c:/texlive/2019/texmf-dist/tex/uplatex/base/ujarticle.cls
INPUT c:/texlive/2019/texmf-dist/tex/uplatex/base/ujarticle.cls
INPUT c:/texlive/2019/texmf-dist/tex/uplatex/base/ujsize10.clo
INPUT c:/texlive/2019/texmf-dist/tex/uplatex/base/ujsize10.clo
INPUT c:/texlive/2019/texmf-dist/tex/latex/geometry/geometry.sty
INPUT c:/texlive/2019/texmf-dist/tex/latex/geometry/geometry.sty
INPUT c:/texlive/2019/texmf-dist/tex/latex/graphics/keyval.sty
INPUT c:/texlive/2019/texmf-dist/tex/latex/graphics/keyval.sty
INPUT c:/texlive/2019/texmf-dist/tex/generic/iftex/ifvtex.sty
INPUT c:/texlive/2019/texmf-dist/tex/generic/iftex/ifvtex.sty
INPUT c:/texlive/2019/texmf-dist/tex/generic/iftex/iftex.sty
INPUT c:/texlive/2019/texmf-dist/tex/generic/iftex/iftex.sty
INPUT c:/texlive/2019/texmf-dist/tex/latex/amsmath/amsmath.sty
INPUT c:/texlive/2019/texmf-dist/tex/latex/amsmath/amsmath.sty
INPUT c:/texlive/2019/texmf-dist/tex/latex/amsmath/amstext.sty
INPUT c:/texlive/2019/texmf-dist/tex/latex/amsmath/amstext.sty
INPUT c:/texlive/2019/texmf-dist/tex/latex/amsmath/amsgen.sty
INPUT c:/texlive/2019/texmf-dist/tex/latex/amsmath/amsgen.sty
INPUT c:/texlive/2019/texmf-dist/tex/latex/amsmath/amsbsy.sty
INPUT c:/texlive/2019/texmf-dist/tex/latex/amsmath/amsbsy.sty
INPUT c:/texlive/2019/texmf-dist/tex/latex/amsmath/amsopn.sty
INPUT c:/texlive/2019/texmf-dist/tex/latex/amsmath/amsopn.sty
INPUT c:/texlive/2019/texmf-dist/tex/latex/amsfonts/amssymb.sty
INPUT c:/texlive/2019/texmf-dist/tex/latex/amsfonts/amssymb.sty
INPUT c:/texlive/2019/texmf-dist/tex/latex/amsfonts/amsfonts.sty
INPUT c:/texlive/2019/texmf-dist/tex/latex/amsfonts/amsfonts.sty
INPUT c:/texlive/2019/texmf-dist/tex/latex/graphics/graphicx.sty
INPUT c:/texlive/2019/texmf-dist/tex/latex/graphics/graphicx.sty
INPUT c:/texlive/2019/texmf-dist/tex/latex/graphics/graphics.sty
INPUT c:/texlive/2019/texmf-dist/tex/latex/graphics/graphics.sty
INPUT c:/texlive/2019/texmf-dist/tex/latex/graphics/trig.sty
INPUT c:/texlive/2019/texmf-dist/tex/latex/graphics/trig.sty
INPUT c:/texlive/2019/texmf-dist/tex/latex/graphics-cfg/graphics.cfg
INPUT c:/texlive/2019/texmf-dist/tex/latex/graphics-cfg/graphics.cfg
INPUT c:/texlive/2019/texmf-dist/tex/latex/graphics-def/dvipdfmx.def
INPUT c:/texlive/2019/texmf-dist/tex/latex/graphics-def/dvipdfmx.def
INPUT c:/texlive/2019/texmf-dist/tex/latex/graphics/color.sty
INPUT c:/texlive/2019/texmf-dist/tex/latex/graphics/color.sty
INPUT c:/texlive/2019/texmf-dist/tex/latex/graphics-cfg/color.cfg
INPUT c:/texlive/2019/texmf-dist/tex/latex/graphics-cfg/color.cfg
INPUT c:/texlive/2019/texmf-dist/tex/latex/graphics/dvipsnam.def
INPUT c:/texlive/2019/texmf-dist/tex/latex/graphics/dvipsnam.def
INPUT c:/texlive/2019/texmf-dist/tex/latex/ascmac/ascmac.sty
INPUT c:/texlive/2019/texmf-dist/tex/latex/ascmac/ascmac.sty
INPUT c:/texlive/2019/texmf-dist/tex/latex/ascmac/tascmac.sty
INPUT c:/texlive/2019/texmf-dist/tex/latex/ascmac/tascmac.sty
INPUT c:/texlive/2019/texmf-dist/fonts/map/fontname/texfonts.map
INPUT c:/texlive/2019/texmf-dist/fonts/tfm/public/ascmac/ascgrp.tfm
INPUT c:/texlive/2019/texmf-dist/tex/latex/tools/bm.sty
INPUT c:/texlive/2019/texmf-dist/tex/latex/tools/bm.sty
INPUT c:/texlive/2019/texmf-dist/tex/latex/float/float.sty
INPUT c:/texlive/2019/texmf-dist/tex/latex/float/float.sty
INPUT c:/texlive/2019/texmf-dist/tex/latex/framed/framed.sty
INPUT c:/texlive/2019/texmf-dist/tex/latex/framed/framed.sty
INPUT c:/texlive/2019/texmf-dist/tex/latex/algorithms/algorithm.sty
INPUT c:/texlive/2019/texmf-dist/tex/latex/algorithms/algorithm.sty
INPUT c:/texlive/2019/texmf-dist/tex/latex/base/ifthen.sty
INPUT c:/texlive/2019/texmf-dist/tex/latex/base/ifthen.sty
INPUT c:/texlive/2019/texmf-dist/tex/latex/algorithms/algorithmic.sty
INPUT c:/texlive/2019/texmf-dist/tex/latex/algorithms/algorithmic.sty
INPUT ../Setting/2_command/command.tex
INPUT ../Setting/2_command/command.tex
INPUT c:/texlive/2019/texmf-dist/tex/latex/l3backend/l3backend-dvipdfmx.def
INPUT c:/texlive/2019/texmf-dist/tex/latex/l3backend/l3backend-dvipdfmx.def
INPUT main.aux
INPUT main.aux
OUTPUT main.aux
INPUT ../3_title/title.tex
INPUT ../3_title/title.tex
INPUT c:/texlive/2019/texmf-dist/fonts/tfm/uptex-fonts/jis/upjisr-v.tfm
INPUT c:/texlive/2019/texmf-dist/fonts/tfm/uptex-fonts/jis/upjisr-h.tfm
INPUT c:/texlive/2019/texmf-dist/fonts/tfm/public/cm/cmr17.tfm
INPUT ../4_0_outline/outline.tex
INPUT ../4_0_outline/outline.tex
INPUT c:/texlive/2019/texmf-dist/fonts/tfm/public/cm/cmbx10.tfm
INPUT c:/texlive/2019/texmf-dist/fonts/tfm/public/amsfonts/cmextra/cmex7.tfm
INPUT c:/texlive/2019/texmf-dist/fonts/tfm/public/amsfonts/cmextra/cmex7.tfm
INPUT c:/texlive/2019/texmf-dist/tex/latex/amsfonts/umsa.fd
INPUT c:/texlive/2019/texmf-dist/tex/latex/amsfonts/umsa.fd
INPUT c:/texlive/2019/texmf-dist/fonts/tfm/public/amsfonts/symbols/msam10.tfm
INPUT c:/texlive/2019/texmf-dist/fonts/tfm/public/amsfonts/symbols/msam7.tfm
INPUT c:/texlive/2019/texmf-dist/fonts/tfm/public/amsfonts/symbols/msam5.tfm
INPUT c:/texlive/2019/texmf-dist/tex/latex/amsfonts/umsb.fd
INPUT c:/texlive/2019/texmf-dist/tex/latex/amsfonts/umsb.fd
INPUT c:/texlive/2019/texmf-dist/fonts/tfm/public/amsfonts/symbols/msbm10.tfm
INPUT c:/texlive/2019/texmf-dist/fonts/tfm/public/amsfonts/symbols/msbm7.tfm
INPUT c:/texlive/2019/texmf-dist/fonts/tfm/public/amsfonts/symbols/msbm5.tfm
INPUT c:/texlive/2019/texmf-dist/fonts/tfm/public/cm/cmbx7.tfm
INPUT c:/texlive/2019/texmf-dist/fonts/tfm/public/cm/cmbx5.tfm
INPUT c:/texlive/2019/texmf-dist/fonts/tfm/public/cm/cmmib10.tfm
INPUT c:/texlive/2019/texmf-dist/fonts/tfm/public/amsfonts/cmextra/cmmib7.tfm
INPUT c:/texlive/2019/texmf-dist/fonts/tfm/public/amsfonts/cmextra/cmmib5.tfm
INPUT c:/texlive/2019/texmf-dist/fonts/tfm/public/cm/cmbsy10.tfm
INPUT c:/texlive/2019/texmf-dist/fonts/tfm/public/amsfonts/cmextra/cmbsy7.tfm
INPUT c:/texlive/2019/texmf-dist/fonts/tfm/public/amsfonts/cmextra/cmbsy5.tfm
INPUT ../4_1_section1/section1.tex
INPUT ../4_1_section1/section1.tex
INPUT c:/texlive/2019/texmf-dist/fonts/tfm/uptex-fonts/jis/upjisr-v.tfm
INPUT c:/texlive/2019/texmf-dist/fonts/tfm/uptex-fonts/jis/upjisr-h.tfm
INPUT c:/texlive/2019/texmf-dist/fonts/tfm/public/cm/cmr12.tfm
INPUT c:/texlive/2019/texmf-dist/fonts/tfm/uptex-fonts/jis/upjisg-v.tfm
INPUT c:/texlive/2019/texmf-dist/fonts/tfm/uptex-fonts/jis/upjisg-h.tfm
INPUT c:/texlive/2019/texmf-dist/fonts/tfm/public/cm/cmbx12.tfm
INPUT c:/texlive/2019/texmf-dist/fonts/tfm/uptex-fonts/jis/upjisr-v.tfm
INPUT c:/texlive/2019/texmf-dist/fonts/tfm/uptex-fonts/jis/upjisr-h.tfm
INPUT c:/texlive/2019/texmf-dist/fonts/tfm/public/cm/cmr8.tfm
OUTPUT main.dvi
INPUT ../4_2_section2/section2.tex
INPUT ../4_2_section2/section2.tex
INPUT ../4_3_section3/section3.tex
INPUT ../4_3_section3/section3.tex
INPUT ../4_4_section4/section4.tex
INPUT ../4_4_section4/section4.tex
INPUT ../4_5_section5/section5.tex
INPUT ../4_5_section5/section5.tex
INPUT main.bbl
INPUT main.bbl
INPUT c:/texlive/2019/texmf-dist/fonts/tfm/public/cm/cmti10.tfm
INPUT main.aux
