\begin{thebibliography}{1}

\bibitem{nesterov1983method}
Nesterov, Y.~E.:
\newblock A method for solving the convex programming problem with convergence
  rate o (1/k\^{} 2),
\newblock {\em Dokl. akad. nauk Sssr}, Vol. 269, pp. 543--547, 1983.

\bibitem{beck2009fast}
Beck, A. and Teboulle, M.:
\newblock A fast iterative shrinkage-thresholding algorithm for linear inverse
  problems,
\newblock {\em SIAM journal on imaging sciences}, Vol.2, No.1, pp.183--202,
  2009.

\bibitem{o2015adaptive}
O’donoghue, B. and Candes, E.:
\newblock Adaptive restart for accelerated gradient schemes,
\newblock {\em Foundations of computational mathematics}, Vol.15, No.3,
  pp.715--732, 2015.

\end{thebibliography}
