\relax 
\citation{nesterov1983method}
\citation{beck2009fast}
\bibstyle{../Setting/sty/jsce}
\bibdata{../5_bibliography/Bibliography/TexBib}
\bibcite{nesterov1983method}{1}
\@writefile{toc}{\contentsline {section}{\numberline {1}FISTA}{1}\protected@file@percent }
\@writefile{loa}{\contentsline {algorithm}{\numberline {1}{\ignorespaces FISTA($g(\bm  {x})=0$の場合}}{1}\protected@file@percent }
\newlabel{algo:FISTA}{{1}{1}}
\bibcite{beck2009fast}{2}
